"C:/Users/User.DESKTOP-9HJ28HQ/Documents/COURS/L2 GEII/S3/VHDL/TP1/EX3/comptdecompt.vhd=work"
"C:/Users/User.DESKTOP-9HJ28HQ/Documents/COURS/L2 GEII/S3/VHDL/TP1/EX3/IMP1/schema.v=work"
"C:/Users/User.DESKTOP-9HJ28HQ/Documents/COURS/L2 GEII/S3/VHDL/TP1/EX2/decodaffich.vhd=work"
"C:/Users/User.DESKTOP-9HJ28HQ/Documents/COURS/L2 GEII/S3/VHDL/TP1/EX2/decod.vhd=work"
"C:/Users/User.DESKTOP-9HJ28HQ/Documents/COURS/L2 GEII/S3/VHDL/TP1/EX1/compteurtuto.vhd=work"
