"C:/Users/User.DESKTOP-9HJ28HQ/Documents/COURS/L2 GEII/S3/VHDL S3/TP1/EX8/GRADATEUR.vhd=work"
"C:/Users/User.DESKTOP-9HJ28HQ/Documents/COURS/L2 GEII/S3/VHDL S3/TP1/EX8/impl1/schema.v=work"
"C:/Users/User.DESKTOP-9HJ28HQ/Documents/COURS/L2 GEII/S3/VHDL S3/TP1/EX8/COMP8.v=work"
"C:/Users/User.DESKTOP-9HJ28HQ/Documents/COURS/L2 GEII/S3/VHDL S3/TP1/EX8/COUNT8.v=work"
